[
    {
        "question": " What is the Games Portal?",
        "answer": "'Games Portal' is a portal that allows the download of a variety of interesting and fun games.The use of Games Portal requires Internet access and data enabled device. Upon successful subscription, the subscriber will receive an SMS with a URL prompting him/her to download content through the web portal and will be charged with the appropriate amount, i.e. R5 / day."
    },
    {
        "question": "  How can I download a content?",
        "answer": "To download content:<br> 1. Select the games category you want (e.g. Action, Arcade, Puzzle etc.).<br>2. Select the specific game that you wish to download. Upon selecting the game of preference, a short description will be displayed.<br>3. Click on the button 'Download'.<br> 4. Confirm again by clicking once more on the button 'Download'.<br>Please note: there is a daily limit on game downloads on your phone. You can download up to 3 games per day, upon renewal."
    },
    {
        "question": "Is there a limit on the games I can download on my phone?",
        "answer": "Yes, there is daily limit. You can download up to 3 games per day, upon renewal."
    },
    {
        "question": "What is the service duration?",
        "answer": "The Service is provisioned to have an unlimited duration. Users can enjoy the service(s) as long as you remain subscribed."
    },
    {
        "question": "Who is eligible to participate?",
        "answer": "Games Portal is open to residents of South Africa that are MTN mobile users with data-enabled devices."
    },
    {
        "question": "How can I subscribe?",
        "answer": "To subscribe to the service, you will have to send the service-specific keyword to the short code 39635 or dial the service-specific USSD code. In more detail, to subscribe, you can: 1. Either send an SMS with the word 'OK' to 39635.<br>2. Or dial *156*878# and follow the instructions on the USSD pop up screen"
    },
    {
        "question": "What is the cost of participation?",
        "answer": "The subscription cost is 5 Rand per day (automatic daily renewal). Upon renewal you are offered an all-day access to download games content (up to 3 game downloads per day). Standard data rates apply."
    },
    {
        "question": "How can I unsubscribe from the service?",
        "answer": "You can cancel your subscription to the service at any time. If you wish to unsubscribe from the service, send an SMS with the word 'STOP' to the short code 39635 at no cost. Upon sending the respective keyword to the short code and upon successful unsubscription, you will receive a message confirming the cancellation."
    },
    {
        "question": "How can I find out more information about the service via SMS?",
        "answer": "To find out more generic information for Games Portal, send an SMS with the word 'INFO' to the short code 39635 at no cost."
    },
    {
        "question": "I forgot my password. What should I do?",
        "answer": "You can easily retrieve your credentials by sending an SMS with the word 'PASSWORD' to 39635 (at no cost) and your credentials will be sent to you."
    },
    {
        "question": "I cannot access the Games Portal, why?",
        "answer": "Make sure that either your mobile internet connection is enabled (2G // 3G // 4G) or you are within a Wi-Fi network. In the case of mobile internet connection, you should be able to directly access the download pages. In the case of Wi-Fi, you will be prompted to input your credentials. This process is to mitigate fraud."
    },
    {
        "question": "I cannot download content from the Games Portal, why?",
        "answer": "Note that Windows and Apple devices have restricted access to the portal due to proprietary constraints. So, please make sure that your device is data-enabled and that it also supports download capabilities. Also, please make sure that you have not exceeded your daily limit of game downloads. Remember: you can download up to 3 games per day, upon renewal."
    },
    {
        "question": "I have subscribed to the service, but content is still locked. Why?",
        "answer": "If you are not able to download content from the portal, then your subscription is in an unpaid status. The content will be unlocked immediately after the next successful charge attempt which will be confirmed to you via an SMS to your mobile number used to register to this service . After the successful charge attempt, make sure to tap on the Home button from the menu in order to refresh your eligibility to download content and visit the My Account section for more details on your subscription and content eligibility status."
    },
    {
        "question": "I sent a message to 39635, but did not receive a reply SMS, why?",
        "answer": "If you have not received a reply SMS, verify the following:<br>1. Check if your mobile is full of messages and does not have enough of memory to receive new ones. Please erase some messages to free up some memory.<br>2. Please check the mobile phone is inside network coverage area. Under no or limited signal coverage, the SMS might have failed to reach the destination.<br>3. The message was not sent to the correct number. Write a new message and send it to the right short code.<br>4. There is a chance the network in your area is overloaded at the moment. Please show some patience. If you do not receive a message within 15 minutes, please send a new SMS."
    }
]